certifi==2017.4.17
chardet==3.0.4
Django==1.11.2
idna==2.5
olefile==0.44
Pillow==4.0.0
python-resize-image==1.1.11
pytz==2017.2
requests==2.18.1
simplejson==3.11.1
urllib3==1.21.1

backports.functools-lru-cache==1.5
cftime==1.0.0
cycler==0.10.0
Cython==0.28.2
kiwisolver==1.0.1
matplotlib==2.2.2
netCDF4==1.4.0
numpy==1.14.3
pyparsing==2.2.0
python-dateutil==2.7.3
pytz==2018.4
scipy==1.1.0
six==1.11.0
subprocess32==3.5.1